C:\Users\a627221\IdeaProjects\spring-boot-bookshelf\src\main\java\bookshelf\book\BooksManager.java
C:\Users\a627221\IdeaProjects\spring-boot-bookshelf\src\main\java\bookshelf\springboot\components\BookService.java
C:\Users\a627221\IdeaProjects\spring-boot-bookshelf\src\main\java\bookshelf\book\Book.java
C:\Users\a627221\IdeaProjects\spring-boot-bookshelf\src\main\java\bookshelf\JsonManager.java
C:\Users\a627221\IdeaProjects\spring-boot-bookshelf\src\main\java\bookshelf\Main.java
C:\Users\a627221\IdeaProjects\spring-boot-bookshelf\src\main\java\bookshelf\book\BookBuilder.java
C:\Users\a627221\IdeaProjects\spring-boot-bookshelf\src\main\java\bookshelf\book\Author.java
C:\Users\a627221\IdeaProjects\spring-boot-bookshelf\src\main\java\bookshelf\book\BookDataStructure.java
C:\Users\a627221\IdeaProjects\spring-boot-bookshelf\src\main\java\bookshelf\exceptions\NotFoundException.java
C:\Users\a627221\IdeaProjects\spring-boot-bookshelf\src\main\java\bookshelf\springboot\components\BookRequestController.java
